…
Let's search for a nearby station:

    stations_search("Welland", interval = "hour")

    ## # A tibble: 2 x 13
    ##   prov  station_name station_id climate_id WMO_id TC_id   lat   lon  elev
    ##   <fct> <chr>        <fct>      <fct>      <fct>  <fct> <dbl> <dbl> <dbl>
    ## 1 ON    PA WELLAND … 52499      6136305    <NA>   W5Z    43.0 -79.3  186.
    ## 2 ON    WELLAND-PEL… 44283      6139449    71752  TWL    43.0 -79.3  178 
    ## # … with 4 more variables: tz <chr>, interval <chr>, start <int>,
    ## #   end <int>

    stations_search(coords = c(43.1, -79), dist = 100, interval = "hour")

    ## # A tibble: 69 x 14
    ##    prov  station_name station_id climate_id WMO_id TC_id   lat   lon  elev
    ##    <fct> <chr>        <fct>      <fct>      <fct>  <fct> <dbl> <dbl> <dbl>
    ##  1 ON    ST CATHARIN… 53000      6137304    <NA>   YSN    43.2 -79.2  97.8
    ##  2 ON    ST. CATHARI… 50131      6137286    <NA>   YSN    43.2 -79.2  97.8
    ##  3 ON    ST CATHARIN… 4683       6137287    <NA>   YSN    43.2 -79.2  97.8
    ##  4 ON    PA ROYAL CA… 52734      6136290    <NA>   Z4W    43.2 -79.3  90.5
    ##  5 ON    PORT WELLER… 7790       6136699    71432  WWZ    43.2 -79.2  79  
    ##  6 ON    PA WELLAND … 52499      6136305    <NA>   W5Z    43.0 -79.3 186. 
    ##  7 ON    WELLAND-PEL… 44283      6139449    71752  TWL    43.0 -79.3 178  
    ##  8 ON    PA ATMOS FE… 52743      6136285    <NA>   A0T    43.0 -79.4 193  
    ##  9 ON    PA VINELAND… 52722      6136300    <NA>   L6B    43.2 -79.4 112. 
    ## 10 ON    PORT COLBOR… 9005       613F606    71463  WPC    42.9 -79.2 184. 
    ## # … with 59 more rows, and 5 more variables: tz <chr>, interval <chr>,
    ## #   start <int>, end <int>, distance <dbl>
…
